Exploring Export Data of Pakistan with its partner countries
…
# A tibble: 6 × 3
# Groups:   PartnerName [3]
  PartnerName     Year      sum
  <chr>          <dbl>    <dbl>
1 United States   2019 4007399.
2 United States   2018 3779145.
3 United States   2017 3546689.
4 China           2019 1997217.
5 China           2018 1754391.
6 United Kingdom  2018 1715553.

Group by product name

# A tibble: 2,942 × 3
# Groups:   ProductCode [1,733]
   ProductCode PartnerName        sum
         <dbl> <chr>            <dbl>
 1      520512 China          565848.
 2      620322 United States  401733.
 3      630260 United States  333286.
 4      630710 United States  318770.
 5      740319 China          258740.
 6      100630 China          241029.
 7      630210 United States  234804.
 8      630239 United Kingdom 215302.
 9      630239 United States  143067.
10      620322 United Kingdom 142536.
# ℹ 2,932 more rows

# A tibble: 1 × 1
      sum
    <dbl>
1 406685.

# A tibble: 10,516 × 3
# Groups:   ProductCode [3,037]
   ProductCode PartnerName          Total_value
         <dbl> <chr>                      <dbl>
 1      520512 China                    565848.
 2      620322 United States            401733.
 3      630260 United States            333286.
 4      630710 United States            318770.
 5      740319 China                    258740.
 6      620322 Spain                    255310.
 7      520942 Bangladesh               252258.
 8      100630 China                    241029.
 9      630210 United States            234804.
10      100630 United Arab Emirates     229240.
# ℹ 10,506 more rows

# A tibble: 2,831 × 3
# Groups:   PartnerName [194]
   PartnerName   ProductCode    sum
   <chr>               <dbl>  <dbl>
 1 Guinea-Bissau      100640 18013.
 2 Comoros            100630 10115.
 3 Comoros            252329  3681.
 4 Guinea-Bissau      100630  3478.
 5 Occ.Pal.Terr       100630  1239.
 6 Gabon              630239   605.
 7 Eritrea            210690   473.
 8 Eritrea            220710   303.
 9 Cuba               630260   248.
10 Cuba               520822   240.
# ℹ 2,821 more rows
