Time Series Machine Learning
…
Data

We’ll be using the Bike Sharing Dataset from the UCI Machine Learning Repository.

Source: Fanaee-T, Hadi, and Gama, Joao, ‘Event labeling combining ensemble detectors and background knowledge’, Progress in Artificial Intelligence (2013): pp. 1-15, Springer Berlin Heidelberg

# Read data
bike_transactions_tbl <- bike_sharing_daily %>%
  select(date = dteday, value = cnt)

bike_transactions_tbl

# A tibble: 731 × 2
   date       value
   <date>     <dbl>
 1 2011-01-01   985
 2 2011-01-02   801
 3 2011-01-03  1349
 4 2011-01-04  1562
 5 2011-01-05  1600
 6 2011-01-06  1606
 7 2011-01-07  1510
 8 2011-01-08   959
 9 2011-01-09   822
10 2011-01-10  1321
# ℹ 721 more rows
…
The recipes package allows us to add preprocessing steps that are applied sequentially as part of a data transformation pipeline.

The timetk has step_timeseries_signature(), which is used to add a number of features that can help machine learning models.

library(recipes)
# Add time series signature
recipe_spec_timeseries <- recipe(value ~ ., data = training(splits)) %>%
    step_timeseries_signature(date) 

We can see what happens when we apply a prepared recipe prep() using the bake() function. Many new columns were added from the timestamp “date” feature. These are features we can use in our machine learning models.

bake(prep(recipe_spec_timeseries), new_data = training(splits))

# A tibble: 641 × 29
   date       value date_index.num date_year date_year.iso date_half
   <date>     <dbl>          <dbl>     <int>         <int>     <int>
 1 2011-01-01   985     1293840000      2011          2010         1
 2 2011-01-02   801     1293926400      2011          2010         1
 3 2011-01-03  1349     1294012800      2011          2011         1
 4 2011-01-04  1562     1294099200      2011          2011         1
 5 2011-01-05  1600     1294185600      2011          2011         1
 6 2011-01-06  1606     1294272000      2011          2011         1
 7 2011-01-07  1510     1294358400      2011          2011         1
 8 2011-01-08   959     1294444800      2011          2011         1
 9 2011-01-09   822     1294531200      2011          2011         1
10 2011-01-10  1321     1294617600      2011          2011         1
# ℹ 631 more rows
# ℹ 23 more variables: date_quarter <int>, date_month <int>,
#   date_month.xts <int>, date_month.lbl <ord>, date_day <int>,
#   date_hour <int>, date_minute <int>, date_second <int>, date_hour12 <int>,
#   date_am.pm <int>, date_wday <int>, date_wday.xts <int>,
#   date_wday.lbl <ord>, date_mday <int>, date_qday <int>, date_yday <int>,
#   date_mweek <int>, date_week <int>, date_week.iso <int>, date_week2 <int>, …

Next, I apply various preprocessing steps to improve the modeling behavior. If you wish to learn more, I have an Advanced Time Series course that will help you learn these techniques.

recipe_spec_final <- recipe_spec_timeseries %>%
    step_fourier(date, period = 365, K = 5) %>%
    step_rm(date) %>%
    step_rm(contains("iso"), contains("minute"), contains("hour"),
            contains("am.pm"), contains("xts")) %>%
    step_normalize(contains("index.num"), date_year) %>%
    step_dummy(contains("lbl"), one_hot = TRUE) 

juice(prep(recipe_spec_final))

# A tibble: 641 × 47
   value date_index.num date_year date_half date_quarter date_month date_day
   <dbl>          <dbl>     <dbl>     <int>        <int>      <int>    <int>
 1   985          -1.73    -0.869         1            1          1        1
 2   801          -1.72    -0.869         1            1          1        2
 3  1349          -1.72    -0.869         1            1          1        3
 4  1562          -1.71    -0.869         1            1          1        4
 5  1600          -1.71    -0.869         1            1          1        5
 6  1606          -1.70    -0.869         1            1          1        6
 7  1510          -1.70    -0.869         1            1          1        7
 8   959          -1.69    -0.869         1            1          1        8
 9   822          -1.68    -0.869         1            1          1        9
10  1321          -1.68    -0.869         1            1          1       10
# ℹ 631 more rows
# ℹ 40 more variables: date_second <int>, date_wday <int>, date_mday <int>,
#   date_qday <int>, date_yday <int>, date_mweek <int>, date_week <int>,
#   date_week2 <int>, date_week3 <int>, date_week4 <int>, date_mday7 <int>,
#   date_sin365_K1 <dbl>, date_cos365_K1 <dbl>, date_sin365_K2 <dbl>,
#   date_cos365_K2 <dbl>, date_sin365_K3 <dbl>, date_cos365_K3 <dbl>,
#   date_sin365_K4 <dbl>, date_cos365_K4 <dbl>, date_sin365_K5 <dbl>, …
…
