us_births
…
Loading required package: fabletools

library(slider)
library(demog)

ATime Series: US Monthly Births

boom <- okboomer |> 
filter(country == "United States") |> 
select(date, total_pop, births_pct_day) |> 
rename(births = births_pct_day)
boom

# A tibble: 996 × 3
   date       total_pop births
   <date>         <dbl>  <dbl>
 1 1933-01-01 125579000   46.4
 2 1933-02-01 125579000   47.2
 3 1933-03-01 125579000   47.2
 4 1933-04-01 125579000   45.5
 5 1933-05-01 125579000   44.9
 6 1933-06-01 125579000   44.9
 7 1933-07-01 125579000   46.5
 8 1933-08-01 125579000   46.7
 9 1933-09-01 125579000   44.5
10 1933-10-01 125579000   42.9
# ℹ 986 more rows
…
Centered Moving Averages: slider

boom |> 
mutate(
ma3 = slide_dbl(births, mean,
.before = 1, .after = 1,
.complete = TRUE))

# A tibble: 996 × 4
   date       total_pop births   ma3
   <date>         <dbl>  <dbl> <dbl>
 1 1933-01-01 125579000   46.4  NA  
 2 1933-02-01 125579000   47.2  46.9
 3 1933-03-01 125579000   47.2  46.6
 4 1933-04-01 125579000   45.5  45.9
 5 1933-05-01 125579000   44.9  45.1
 6 1933-06-01 125579000   44.9  45.4
 7 1933-07-01 125579000   46.5  46.0
 8 1933-08-01 125579000   46.7  45.9
 9 1933-09-01 125579000   44.5  44.7
10 1933-10-01 125579000   42.9  43.8
# ℹ 986 more rows
…
Centered Moving Averages: Order 12

Its calculated in two steps

boom |> 
mutate(
mav12 = slide_dbl(births, mean,
.before = 5, .after = 6,
.complete = TRUE),
mav2x12 = slide_dbl(mav12, mean,
.before = 1, .after = 0,
.complete = TRUE))

# A tibble: 996 × 5
   date       total_pop births mav12 mav2x12
   <date>         <dbl>  <dbl> <dbl>   <dbl>
 1 1933-01-01 125579000   46.4  NA      NA  
 2 1933-02-01 125579000   47.2  NA      NA  
 3 1933-03-01 125579000   47.2  NA      NA  
 4 1933-04-01 125579000   45.5  NA      NA  
 5 1933-05-01 125579000   44.9  NA      NA  
 6 1933-06-01 125579000   44.9  45.4    NA  
 7 1933-07-01 125579000   46.5  45.4    45.4
 8 1933-08-01 125579000   46.7  45.4    45.4
 9 1933-09-01 125579000   44.5  45.3    45.4
10 1933-10-01 125579000   42.9  45.2    45.3
# ℹ 986 more rows
…
This is the moving average we just calculated.

boom_t <- boom |> 
  dplyr::select(date, births) |> 
  mutate(
    month = lubridate::month(date),
    mav12 = slide_dbl(births, mean, .before = 5, .after = 6, .complete = TRUE),
    t = slide_dbl(mav12, mean, .before = 1, .after = 0, .complete = TRUE)
  ) |> 
  dplyr::select(-mav12) # Don't need this anymore

boom_t

# A tibble: 996 × 4
   date       births month     t
   <date>      <dbl> <dbl> <dbl>
 1 1933-01-01   46.4     1  NA  
 2 1933-02-01   47.2     2  NA  
 3 1933-03-01   47.2     3  NA  
 4 1933-04-01   45.5     4  NA  
 5 1933-05-01   44.9     5  NA  
 6 1933-06-01   44.9     6  NA  
 7 1933-07-01   46.5     7  45.4
 8 1933-08-01   46.7     8  45.4
 9 1933-09-01   44.5     9  45.4
10 1933-10-01   42.9    10  45.3
# ℹ 986 more rows

Calculate the Seasonal part

boom_t |> 
mutate(detrended = births - t)

# A tibble: 996 × 5
   date       births month     t detrended
   <date>      <dbl> <dbl> <dbl>     <dbl>
 1 1933-01-01   46.4     1  NA      NA    
 2 1933-02-01   47.2     2  NA      NA    
 3 1933-03-01   47.2     3  NA      NA    
 4 1933-04-01   45.5     4  NA      NA    
 5 1933-05-01   44.9     5  NA      NA    
 6 1933-06-01   44.9     6  NA      NA    
 7 1933-07-01   46.5     7  45.4     1.04 
 8 1933-08-01   46.7     8  45.4     1.29 
 9 1933-09-01   44.5     9  45.4    -0.861
10 1933-10-01   42.9    10  45.3    -2.34 
# ℹ 986 more rows
…
Calculate the seasonal part

Join the trend and seasonal parts

boom_ts <-  boom_t |> 
left_join(boom_s, by = "month")
boom_ts

# A tibble: 996 × 5
   date       births month     t      s
   <date>      <dbl> <dbl> <dbl>  <dbl>
 1 1933-01-01   46.4     1  NA   -1.62 
 2 1933-02-01   47.2     2  NA   -0.575
 3 1933-03-01   47.2     3  NA   -0.909
 4 1933-04-01   45.5     4  NA   -2.21 
 5 1933-05-01   44.9     5  NA   -1.98 
 6 1933-06-01   44.9     6  NA   -0.330
 7 1933-07-01   46.5     7  45.4  1.90 
 8 1933-08-01   46.7     8  45.4  2.74 
 9 1933-09-01   44.5     9  45.4  3.40 
10 1933-10-01   42.9    10  45.3  0.768
# ℹ 986 more rows
…
Calculate the remainder part

The remainder is just what’s left over from y (i.e., births) after we have calculated t and s.

boom_tsr <-  boom_ts |> 
mutate(r = births - t - s)
boom_tsr

# A tibble: 996 × 6
   date       births month     t      s      r
   <date>      <dbl> <dbl> <dbl>  <dbl>  <dbl>
 1 1933-01-01   46.4     1  NA   -1.62  NA    
 2 1933-02-01   47.2     2  NA   -0.575 NA    
 3 1933-03-01   47.2     3  NA   -0.909 NA    
 4 1933-04-01   45.5     4  NA   -2.21  NA    
 5 1933-05-01   44.9     5  NA   -1.98  NA    
 6 1933-06-01   44.9     6  NA   -0.330 NA    
 7 1933-07-01   46.5     7  45.4  1.90  -0.863
 8 1933-08-01   46.7     8  45.4  2.74  -1.46 
 9 1933-09-01   44.5     9  45.4  3.40  -4.26 
10 1933-10-01   42.9    10  45.3  0.768 -3.11 
# ℹ 986 more rows

There’s no need to it manually

boom |> 
mutate(date = yearmonth(date)) |> 
as_tsibble(index = "date") |> 
model(
classical_decomposition(births,
type = "additive")
) |> 
components() |> 
select(-.model)

# A tsibble: 996 x 6 [1M]
       date births trend seasonal random season_adjust
      <mth>  <dbl> <dbl>    <dbl>  <dbl>         <dbl>
 1 1933 Jan   46.4  NA     -1.62  NA              48.0
 2 1933 Feb   47.2  NA     -0.575 NA              47.8
 3 1933 Mar   47.2  NA     -0.909 NA              48.1
 4 1933 Apr   45.5  NA     -2.21  NA              47.7
 5 1933 May   44.9  NA     -1.98  NA              46.9
 6 1933 Jun   44.9  NA     -0.330 NA              45.3
 7 1933 Jul   46.5  45.4    1.90  -0.863          44.6
 8 1933 Aug   46.7  45.4    2.74  -1.46           44.0
 9 1933 Sep   44.5  45.4    3.40  -4.26           41.1
10 1933 Oct   42.9  45.3    0.768 -3.11           42.1
# ℹ 986 more rows
…
