ARIMA modeling using bonds and petrol prices data
…
      October 1, 2023

Load data and relevant libraries

library(tidyverse)
library(zoo)
library(xts)
library(readxl)
library(gt)
ar <- read_csv("data/BondReturns.csv")

ar 

# A tibble: 960 × 4
   caldt          b1ret   t30ret  cpiret
   <chr>          <dbl>    <dbl>   <dbl>
 1 31/01/1942  0.00266  0.000178 0.0129 
 2 28/02/1942  0.000887 0.000111 0.00637
 3 31/03/1942 -0.000143 0.000108 0.0127 
 4 30/04/1942 -0.000481 0.000068 0.00625
 5 29/05/1942  0.000433 0.000161 0.0124 
 6 30/06/1942  0.00065  0.000249 0      
 7 31/07/1942 -0.000304 0.000252 0.00614
 8 31/08/1942  0.000629 0.000307 0.00610
 9 30/09/1942  0.000481 0.000281 0      
10 31/10/1942  0.00109  0.000343 0.0121 
# ℹ 950 more rows
…
