VECM Models
…
Methods for testing cointegration

How to estimate a system of cointegrated variables

VAR and VECM difference

Money, Prices and GDP

Data for money, prices and gdp

Purpose is forecasting for next 4 to 8 quarters

Graphs of data

## # A tibble: 204 × 12
##    date...1            quarter Quarter  Year date...5  QRGDP M2_mill_rs
##    <dttm>                <dbl> <chr>   <dbl> <chr>     <dbl>      <dbl>
##  1 1970-01-01 00:00:00       1 Q1       1970 1970Q1   223168      20800
##  2 1970-04-01 00:00:00       2 Q2       1970 1970Q2   225140      21500
##  3 1970-07-01 00:00:00       3 Q3       1970 1970Q3   225980      22213
##  4 1970-10-01 00:00:00       4 Q4       1970 1970Q4   245436      22965
##  5 1971-01-01 00:00:00       1 Q1       1971 1971Q1   251348      23632
##  6 1971-04-01 00:00:00       2 Q2       1971 1971Q2   259999      24643
##  7 1971-07-01 00:00:00       3 Q3       1971 1971Q3   261355      24718
##  8 1971-10-01 00:00:00       4 Q4       1971 1971Q4   271232      24300
##  9 1972-01-01 00:00:00       1 Q1       1972 1972Q1   279965      24324
## 10 1972-04-01 00:00:00       2 Q2       1972 1972Q2   285432      25134
## # ℹ 194 more rows
## # ℹ 5 more variables: LNRGDP <dbl>, LNM2 <dbl>, CPI <dbl>, inf <dbl>,
## #   `inf cpi` <dbl>
…
