Understanding econometric modeling with simple Consumption Function for Pakistan
…
The Keynesian consumption function is one of the most widely accepted and estimated regression models. The causal hypothesis is that Income (GDP) determines Consumption (Con): GDP \(Rightarrow\) Con. The simplest regression model which embodies this relationship is: \(C = \alpha + \beta Y\). Running this regression on the data leads to the following results:

# A tibble: 52 × 5
      ID     C     Y C_hat residual
   <int> <dbl> <dbl> <dbl>    <dbl>
 1     1  327.  404.  313.   14.7  
 2     2  326.  422.  327.   -0.527
 3     3  348.  433.  336.   12.8  
 4     4  380.  469.  364.   15.8  
 5     5  365.  459.  356.    9.18 
 6     6  356.  450.  349.    6.70 
 7     7  367.  469.  364.    3.28 
 8     8  396.  472.  366.   29.7  
 9     9  405.  478.  371.   33.7  
10    10  393.  488.  379.   14.2  
# ℹ 42 more rows
…
