Spurious Regressions
…
The Keynesian consumption function is one of the most widely accepted and estimated regression models. The causal hypothesis is that Income (GDP) determines Consumption (Con): GDP \(Rightarrow\) Con. The simplest regression model which embodies this relationship is: Con = a + b GDP. Running this regression on the data leads to the following results:

# A tibble: 60 × 5
      ID SgpCon SgpGDP SgpCon_hat residual
   <int>  <dbl>  <dbl>      <dbl>    <dbl>
 1     1   2.09   2.04       5.42    -3.33
 2     2   2.33   2.22       5.51    -3.18
 3     3   2.44   2.40       5.60    -3.15
 4     4   2.61   2.68       5.73    -3.12
 5     5   2.53   2.60       5.69    -3.16
 6     6   2.66   2.82       5.80    -3.13
 7     7   2.92   3.17       5.97    -3.04
 8     8   3.25   3.60       6.18    -2.92
 9     9   3.65   4.15       6.44    -2.79
10    10   4.02   4.82       6.77    -2.74
# ℹ 50 more rows
…
